<font>
  <info face="font" size="72" bold="0" italic="0" charset="" unicode="" stretchH="100" smooth="1" aa="1" padding="2,2,2,2" spacing="0,0" outline="0"/>
  <common lineHeight="160" base="109" scaleW="2229" scaleH="512" pages="1" packed="0"/>
  <pages>
    <page id="0" file="font.png"/>
  </pages>
  <chars count="95">
    <char id="32" x="2" y="2" width="0" height="0" xoffset="0" yoffset="109" xadvance="29" page="0" chnl="15"/>
    <char id="33" x="2" y="4" width="55" height="134" xoffset="2" yoffset="12" xadvance="49" page="0" chnl="15"/>
    <char id="34" x="2" y="140" width="87" height="117" xoffset="-7" yoffset="2" xadvance="68" page="0" chnl="15"/>
    <char id="35" x="59" y="2" width="87" height="117" xoffset="-7" yoffset="2" xadvance="68" page="0" chnl="15"/>
    <char id="36" x="2" y="259" width="87" height="117" xoffset="-7" yoffset="2" xadvance="68" page="0" chnl="15"/>
    <char id="37" x="2" y="378" width="87" height="117" xoffset="-7" yoffset="2" xadvance="68" page="0" chnl="15"/>
    <char id="38" x="91" y="121" width="87" height="117" xoffset="-7" yoffset="2" xadvance="68" page="0" chnl="15"/>
    <char id="39" x="148" y="2" width="56" height="59" xoffset="-1" yoffset="0" xadvance="50" page="0" chnl="15"/>
    <char id="40" x="91" y="240" width="87" height="117" xoffset="-7" yoffset="2" xadvance="68" page="0" chnl="15"/>
    <char id="41" x="91" y="359" width="87" height="117" xoffset="-7" yoffset="2" xadvance="68" page="0" chnl="15"/>
    <char id="42" x="180" y="63" width="87" height="117" xoffset="-7" yoffset="2" xadvance="68" page="0" chnl="15"/>
    <char id="43" x="180" y="182" width="87" height="117" xoffset="-7" yoffset="2" xadvance="68" page="0" chnl="15"/>
    <char id="44" x="206" y="2" width="56" height="59" xoffset="-1" yoffset="89" xadvance="50" page="0" chnl="15"/>
    <char id="45" x="264" y="2" width="70" height="48" xoffset="10" yoffset="61" xadvance="81" page="0" chnl="15"/>
    <char id="46" x="180" y="301" width="51" height="51" xoffset="-1" yoffset="89" xadvance="44" page="0" chnl="15"/>
    <char id="47" x="180" y="354" width="87" height="117" xoffset="-7" yoffset="2" xadvance="68" page="0" chnl="15"/>
    <char id="48" x="269" y="52" width="90" height="109" xoffset="2" yoffset="31" xadvance="88" page="0" chnl="15"/>
    <char id="49" x="269" y="163" width="63" height="118" xoffset="4" yoffset="24" xadvance="62" page="0" chnl="15"/>
    <char id="50" x="269" y="283" width="90" height="119" xoffset="4" yoffset="27" xadvance="95" page="0" chnl="15"/>
    <char id="51" x="361" y="2" width="93" height="131" xoffset="3" yoffset="12" xadvance="89" page="0" chnl="15"/>
    <char id="52" x="361" y="135" width="81" height="122" xoffset="1" yoffset="24" xadvance="85" page="0" chnl="15"/>
    <char id="53" x="361" y="259" width="97" height="131" xoffset="-5" yoffset="17" xadvance="86" page="0" chnl="15"/>
    <char id="54" x="456" y="2" width="100" height="126" xoffset="-4" yoffset="23" xadvance="91" page="0" chnl="15"/>
    <char id="55" x="460" y="130" width="85" height="128" xoffset="10" yoffset="13" xadvance="95" page="0" chnl="15"/>
    <char id="56" x="460" y="260" width="106" height="132" xoffset="0" yoffset="15" xadvance="103" page="0" chnl="15"/>
    <char id="57" x="558" y="2" width="101" height="129" xoffset="-1" yoffset="15" xadvance="96" page="0" chnl="15"/>
    <char id="58" x="361" y="392" width="87" height="117" xoffset="-7" yoffset="2" xadvance="68" page="0" chnl="15"/>
    <char id="59" x="547" y="133" width="87" height="117" xoffset="-7" yoffset="2" xadvance="68" page="0" chnl="15"/>
    <char id="60" x="568" y="252" width="87" height="117" xoffset="-7" yoffset="2" xadvance="68" page="0" chnl="15"/>
    <char id="61" x="636" y="133" width="87" height="117" xoffset="-7" yoffset="2" xadvance="68" page="0" chnl="15"/>
    <char id="62" x="661" y="2" width="87" height="117" xoffset="-7" yoffset="2" xadvance="68" page="0" chnl="15"/>
    <char id="63" x="568" y="371" width="80" height="130" xoffset="4" yoffset="11" xadvance="77" page="0" chnl="15"/>
    <char id="64" x="650" y="371" width="87" height="117" xoffset="-7" yoffset="2" xadvance="68" page="0" chnl="15"/>
    <char id="65" x="725" y="121" width="95" height="129" xoffset="0" yoffset="13" xadvance="89" page="0" chnl="15"/>
    <char id="66" x="739" y="252" width="97" height="132" xoffset="0" yoffset="11" xadvance="92" page="0" chnl="15"/>
    <char id="67" x="822" y="2" width="85" height="130" xoffset="0" yoffset="16" xadvance="79" page="0" chnl="15"/>
    <char id="68" x="739" y="386" width="92" height="120" xoffset="0" yoffset="22" xadvance="86" page="0" chnl="15"/>
    <char id="69" x="838" y="134" width="83" height="127" xoffset="-1" yoffset="17" xadvance="76" page="0" chnl="15"/>
    <char id="70" x="909" y="2" width="83" height="125" xoffset="0" yoffset="20" xadvance="78" page="0" chnl="15"/>
    <char id="71" x="838" y="263" width="93" height="136" xoffset="2" yoffset="12" xadvance="88" page="0" chnl="15"/>
    <char id="72" x="933" y="129" width="90" height="136" xoffset="1" yoffset="11" xadvance="85" page="0" chnl="15"/>
    <char id="73" x="994" y="2" width="45" height="122" xoffset="1" yoffset="16" xadvance="40" page="0" chnl="15"/>
    <char id="74" x="933" y="267" width="76" height="127" xoffset="-1" yoffset="18" xadvance="69" page="0" chnl="15"/>
    <char id="75" x="1011" y="267" width="92" height="121" xoffset="-1" yoffset="20" xadvance="84" page="0" chnl="15"/>
    <char id="76" x="1025" y="126" width="72" height="139" xoffset="-4" yoffset="13" xadvance="64" page="0" chnl="15"/>
    <char id="77" x="1099" y="2" width="118" height="130" xoffset="0" yoffset="19" xadvance="111" page="0" chnl="15"/>
    <char id="78" x="1099" y="134" width="97" height="121" xoffset="2" yoffset="18" xadvance="93" page="0" chnl="15"/>
    <char id="79" x="1105" y="257" width="86" height="128" xoffset="1" yoffset="14" xadvance="82" page="0" chnl="15"/>
    <char id="80" x="1193" y="257" width="95" height="134" xoffset="3" yoffset="9" xadvance="93" page="0" chnl="15"/>
    <char id="81" x="1219" y="2" width="85" height="124" xoffset="2" yoffset="23" xadvance="82" page="0" chnl="15"/>
    <char id="82" x="1219" y="128" width="89" height="123" xoffset="0" yoffset="20" xadvance="86" page="0" chnl="15"/>
    <char id="83" x="1290" y="253" width="98" height="130" xoffset="-1" yoffset="16" xadvance="91" page="0" chnl="15"/>
    <char id="84" x="1310" y="2" width="85" height="131" xoffset="4" yoffset="13" xadvance="86" page="0" chnl="15"/>
    <char id="85" x="450" y="394" width="91" height="115" xoffset="0" yoffset="23" xadvance="86" page="0" chnl="15"/>
    <char id="86" x="1390" y="135" width="95" height="126" xoffset="-2" yoffset="16" xadvance="87" page="0" chnl="15"/>
    <char id="87" x="1397" y="2" width="118" height="129" xoffset="0" yoffset="15" xadvance="112" page="0" chnl="15"/>
    <char id="88" x="933" y="396" width="103" height="112" xoffset="0" yoffset="25" xadvance="96" page="0" chnl="15"/>
    <char id="89" x="1390" y="263" width="88" height="126" xoffset="1" yoffset="21" xadvance="84" page="0" chnl="15"/>
    <char id="90" x="1038" y="393" width="99" height="116" xoffset="3" yoffset="25" xadvance="96" page="0" chnl="15"/>
    <char id="91" x="1139" y="393" width="87" height="117" xoffset="-7" yoffset="2" xadvance="68" page="0" chnl="15"/>
    <char id="92" x="1228" y="393" width="87" height="117" xoffset="-7" yoffset="2" xadvance="68" page="0" chnl="15"/>
    <char id="93" x="1317" y="391" width="87" height="117" xoffset="-7" yoffset="2" xadvance="68" page="0" chnl="15"/>
    <char id="94" x="1406" y="391" width="87" height="117" xoffset="-7" yoffset="2" xadvance="68" page="0" chnl="15"/>
    <char id="95" x="1480" y="263" width="87" height="117" xoffset="-7" yoffset="2" xadvance="68" page="0" chnl="15"/>
    <char id="96" x="1495" y="382" width="87" height="117" xoffset="-7" yoffset="2" xadvance="68" page="0" chnl="15"/>
    <char id="97" x="1487" y="133" width="87" height="117" xoffset="-7" yoffset="2" xadvance="68" page="0" chnl="15"/>
    <char id="98" x="1569" y="252" width="87" height="117" xoffset="-7" yoffset="2" xadvance="68" page="0" chnl="15"/>
    <char id="99" x="1517" y="2" width="87" height="117" xoffset="-7" yoffset="2" xadvance="68" page="0" chnl="15"/>
    <char id="100" x="1576" y="121" width="87" height="117" xoffset="-7" yoffset="2" xadvance="68" page="0" chnl="15"/>
    <char id="101" x="1606" y="2" width="87" height="117" xoffset="-7" yoffset="2" xadvance="68" page="0" chnl="15"/>
    <char id="102" x="1584" y="371" width="87" height="117" xoffset="-7" yoffset="2" xadvance="68" page="0" chnl="15"/>
    <char id="103" x="1658" y="240" width="87" height="117" xoffset="-7" yoffset="2" xadvance="68" page="0" chnl="15"/>
    <char id="104" x="1665" y="121" width="87" height="117" xoffset="-7" yoffset="2" xadvance="68" page="0" chnl="15"/>
    <char id="105" x="1695" y="2" width="87" height="117" xoffset="-7" yoffset="2" xadvance="68" page="0" chnl="15"/>
    <char id="106" x="1673" y="359" width="87" height="117" xoffset="-7" yoffset="2" xadvance="68" page="0" chnl="15"/>
    <char id="107" x="1747" y="240" width="87" height="117" xoffset="-7" yoffset="2" xadvance="68" page="0" chnl="15"/>
    <char id="108" x="1754" y="121" width="87" height="117" xoffset="-7" yoffset="2" xadvance="68" page="0" chnl="15"/>
    <char id="109" x="1784" y="2" width="87" height="117" xoffset="-7" yoffset="2" xadvance="68" page="0" chnl="15"/>
    <char id="110" x="1762" y="359" width="87" height="117" xoffset="-7" yoffset="2" xadvance="68" page="0" chnl="15"/>
    <char id="111" x="1836" y="240" width="87" height="117" xoffset="-7" yoffset="2" xadvance="68" page="0" chnl="15"/>
    <char id="112" x="1843" y="121" width="87" height="117" xoffset="-7" yoffset="2" xadvance="68" page="0" chnl="15"/>
    <char id="113" x="1873" y="2" width="87" height="117" xoffset="-7" yoffset="2" xadvance="68" page="0" chnl="15"/>
    <char id="114" x="1851" y="359" width="87" height="117" xoffset="-7" yoffset="2" xadvance="68" page="0" chnl="15"/>
    <char id="115" x="1925" y="240" width="87" height="117" xoffset="-7" yoffset="2" xadvance="68" page="0" chnl="15"/>
    <char id="116" x="1932" y="121" width="87" height="117" xoffset="-7" yoffset="2" xadvance="68" page="0" chnl="15"/>
    <char id="117" x="1962" y="2" width="87" height="117" xoffset="-7" yoffset="2" xadvance="68" page="0" chnl="15"/>
    <char id="118" x="1940" y="359" width="87" height="117" xoffset="-7" yoffset="2" xadvance="68" page="0" chnl="15"/>
    <char id="119" x="2014" y="240" width="87" height="117" xoffset="-7" yoffset="2" xadvance="68" page="0" chnl="15"/>
    <char id="120" x="2021" y="121" width="87" height="117" xoffset="-7" yoffset="2" xadvance="68" page="0" chnl="15"/>
    <char id="121" x="2051" y="2" width="87" height="117" xoffset="-7" yoffset="2" xadvance="68" page="0" chnl="15"/>
    <char id="122" x="2029" y="359" width="87" height="117" xoffset="-7" yoffset="2" xadvance="68" page="0" chnl="15"/>
    <char id="123" x="2103" y="240" width="87" height="117" xoffset="-7" yoffset="2" xadvance="68" page="0" chnl="15"/>
    <char id="124" x="2110" y="121" width="87" height="117" xoffset="-7" yoffset="2" xadvance="68" page="0" chnl="15"/>
    <char id="125" x="2140" y="2" width="87" height="117" xoffset="-7" yoffset="2" xadvance="68" page="0" chnl="15"/>
    <char id="126" x="2118" y="359" width="87" height="117" xoffset="-7" yoffset="2" xadvance="68" page="0" chnl="15"/>
    <char id="32" x="0" y="0" width="0" height="0" xoffset="-7" yoffset="2" xadvance="29" page="0" chnl="15"/>
  </chars>
  <kernings count="42">
    <kerning first="65" second="86" amount="-3"/>
    <kerning first="68" second="77" amount="-3"/>
    <kerning first="68" second="86" amount="-1"/>
    <kerning first="70" second="65" amount="-11"/>
    <kerning first="70" second="74" amount="-5"/>
    <kerning first="70" second="77" amount="-15"/>
    <kerning first="70" second="81" amount="-2"/>
    <kerning first="70" second="83" amount="-4"/>
    <kerning first="70" second="88" amount="-1"/>
    <kerning first="71" second="84" amount="-2"/>
    <kerning first="71" second="86" amount="-9"/>
    <kerning first="71" second="87" amount="-2"/>
    <kerning first="76" second="84" amount="-13"/>
    <kerning first="76" second="85" amount="-14"/>
    <kerning first="76" second="86" amount="-12"/>
    <kerning first="77" second="80" amount="-3"/>
    <kerning first="77" second="86" amount="-2"/>
    <kerning first="79" second="77" amount="-6"/>
    <kerning first="80" second="65" amount="-7"/>
    <kerning first="80" second="74" amount="-2"/>
    <kerning first="80" second="77" amount="-11"/>
    <kerning first="80" second="83" amount="-1"/>
    <kerning first="84" second="65" amount="-10"/>
    <kerning first="84" second="74" amount="-17"/>
    <kerning first="84" second="77" amount="-14"/>
    <kerning first="84" second="81" amount="-1"/>
    <kerning first="84" second="83" amount="-3"/>
    <kerning first="85" second="77" amount="-14"/>
    <kerning first="86" second="77" amount="-3"/>
    <kerning first="87" second="65" amount="-13"/>
    <kerning first="87" second="67" amount="-1"/>
    <kerning first="87" second="74" amount="-7"/>
    <kerning first="87" second="77" amount="-17"/>
    <kerning first="87" second="79" amount="-1"/>
    <kerning first="87" second="81" amount="-3"/>
    <kerning first="87" second="83" amount="-7"/>
    <kerning first="89" second="65" amount="-12"/>
    <kerning first="89" second="74" amount="-11"/>
    <kerning first="89" second="77" amount="-15"/>
    <kerning first="89" second="81" amount="-2"/>
    <kerning first="89" second="83" amount="-5"/>
    <kerning first="90" second="86" amount="-2"/>
  </kernings>
</font>